systolicArray_tb.vcd
$date
	Fri Mar 21 19:50:37 2025
$end
$version
	Icarus Verilog
$end
$timescale
	1ps
$end
$scope module tb_systolicArray $end
$var wire 1 ! done $end
$var wire 144 " Z [143:0] $end
$var reg 8 # A_W0 [7:0] $end
$var reg 8 $ A_W1 [7:0] $end
$var reg 8 % A_W2 [7:0] $end
$var reg 8 & B_N0 [7:0] $end
$var reg 8 ' B_N1 [7:0] $end
$var reg 8 ( B_N2 [7:0] $end
$var reg 1 ) clk $end
$var reg 1 * en $end
$var reg 1 + rst_n $end
$scope module uut $end
$var wire 8 , A_W0 [7:0] $end
$var wire 8 - A_W1 [7:0] $end
$var wire 8 . A_W2 [7:0] $end
$var wire 8 / B_N0 [7:0] $end
$var wire 8 0 B_N1 [7:0] $end
$var wire 8 1 B_N2 [7:0] $end
$var wire 1 ) clk $end
$var wire 1 * en $end
$var wire 1 + rst_n $end
$var wire 16 2 Z22 [15:0] $end
$var wire 16 3 Z21 [15:0] $end
$var wire 16 4 Z20 [15:0] $end
$var wire 16 5 Z12 [15:0] $end
$var wire 16 6 Z11 [15:0] $end
$var wire 16 7 Z10 [15:0] $end
$var wire 16 8 Z02 [15:0] $end
$var wire 16 9 Z01 [15:0] $end
$var wire 16 : Z00 [15:0] $end
$var wire 8 ; B5_South [7:0] $end
$var wire 8 < B4_South [7:0] $end
$var wire 8 = B3_South [7:0] $end
$var wire 8 > B2_South [7:0] $end
$var wire 8 ? B1_South [7:0] $end
$var wire 8 @ B0_South [7:0] $end
$var wire 8 A A7_East [7:0] $end
$var wire 8 B A6_East [7:0] $end
$var wire 8 C A4_East [7:0] $end
$var wire 8 D A3_East [7:0] $end
$var wire 8 E A1_East [7:0] $end
$var wire 8 F A0_East [7:0] $end
$var reg 144 G Z [143:0] $end
$var reg 4 H count [3:0] $end
$var reg 1 ! done $end
$scope module PE00 $end
$var wire 8 I A_in [7:0] $end
$var wire 8 J B_in [7:0] $end
$var wire 1 ) clk $end
$var wire 1 * en $end
$var wire 1 + rst_n $end
$var reg 8 K A_out [7:0] $end
$var reg 8 L B_out [7:0] $end
$var reg 16 M C_out [15:0] $end
$var reg 16 N accumulate [15:0] $end
$var reg 16 O product [15:0] $end
$upscope $end
$scope module PE01 $end
$var wire 8 P A_in [7:0] $end
$var wire 8 Q B_in [7:0] $end
$var wire 1 ) clk $end
$var wire 1 * en $end
$var wire 1 + rst_n $end
$var reg 8 R A_out [7:0] $end
$var reg 8 S B_out [7:0] $end
$var reg 16 T C_out [15:0] $end
$var reg 16 U accumulate [15:0] $end
$var reg 16 V product [15:0] $end
$upscope $end
$scope module PE02 $end
$var wire 8 W A_in [7:0] $end
$var wire 8 X B_in [7:0] $end
$var wire 1 ) clk $end
$var wire 1 * en $end
$var wire 1 + rst_n $end
$var reg 8 Y A_out [7:0] $end
$var reg 8 Z B_out [7:0] $end
$var reg 16 [ C_out [15:0] $end
$var reg 16 \ accumulate [15:0] $end
$var reg 16 ] product [15:0] $end
$upscope $end
$scope module PE10 $end
$var wire 8 ^ A_in [7:0] $end
$var wire 8 _ B_in [7:0] $end
$var wire 1 ) clk $end
$var wire 1 * en $end
$var wire 1 + rst_n $end
$var reg 8 ` A_out [7:0] $end
$var reg 8 a B_out [7:0] $end
$var reg 16 b C_out [15:0] $end
$var reg 16 c accumulate [15:0] $end
$var reg 16 d product [15:0] $end
$upscope $end
$scope module PE11 $end
$var wire 8 e A_in [7:0] $end
$var wire 8 f B_in [7:0] $end
$var wire 1 ) clk $end
$var wire 1 * en $end
$var wire 1 + rst_n $end
$var reg 8 g A_out [7:0] $end
$var reg 8 h B_out [7:0] $end
$var reg 16 i C_out [15:0] $end
$var reg 16 j accumulate [15:0] $end
$var reg 16 k product [15:0] $end
$upscope $end
$scope module PE12 $end
$var wire 8 l A_in [7:0] $end
$var wire 8 m B_in [7:0] $end
$var wire 1 ) clk $end
$var wire 1 * en $end
$var wire 1 + rst_n $end
$var reg 8 n A_out [7:0] $end
$var reg 8 o B_out [7:0] $end
$var reg 16 p C_out [15:0] $end
$var reg 16 q accumulate [15:0] $end
$var reg 16 r product [15:0] $end
$upscope $end
$scope module PE20 $end
$var wire 8 s A_in [7:0] $end
$var wire 8 t B_in [7:0] $end
$var wire 1 ) clk $end
$var wire 1 * en $end
$var wire 1 + rst_n $end
$var reg 8 u A_out [7:0] $end
$var reg 8 v B_out [7:0] $end
$var reg 16 w C_out [15:0] $end
$var reg 16 x accumulate [15:0] $end
$var reg 16 y product [15:0] $end
$upscope $end
$scope module PE21 $end
$var wire 8 z A_in [7:0] $end
$var wire 8 { B_in [7:0] $end
$var wire 1 ) clk $end
$var wire 1 * en $end
$var wire 1 + rst_n $end
$var reg 8 | A_out [7:0] $end
$var reg 8 } B_out [7:0] $end
$var reg 16 ~ C_out [15:0] $end
$var reg 16 !" accumulate [15:0] $end
$var reg 16 "" product [15:0] $end
$upscope $end
$scope module PE22 $end
$var wire 8 #" A_in [7:0] $end
$var wire 8 $" B_in [7:0] $end
$var wire 1 ) clk $end
$var wire 1 * en $end
$var wire 1 + rst_n $end
$var reg 8 %" A_out [7:0] $end
$var reg 8 &" B_out [7:0] $end
$var reg 16 '" C_out [15:0] $end
$var reg 16 (" accumulate [15:0] $end
$var reg 16 )" product [15:0] $end
$upscope $end
$upscope $end
$upscope $end
$scope module tb_systolicArray $end
$scope module uut $end
$scope module PE00 $end
$upscope $end
$scope module PE01 $end
$upscope $end
$scope module PE02 $end
$upscope $end
$scope module PE10 $end
$upscope $end
$scope module PE11 $end
$upscope $end
$scope module PE12 $end
$upscope $end
$scope module PE20 $end
$upscope $end
$scope module PE21 $end
$upscope $end
$scope module PE22 $end
$upscope $end
$upscope $end
$upscope $end
$enddefinitions $end
$comment Show the parameter values. $end
$dumpall
$end
#0
$dumpvars
bx )"
bx ("
bx '"
bx &"
bx %"
bx $"
bx #"
bx ""
bx !"
bx ~
bx }
bx |
bx {
bx z
bx y
bx x
bx w
bx v
bx u
bx t
bx s
bx r
bx q
bx p
bx o
bx n
bx m
bx l
bx k
bx j
bx i
bx h
bx g
bx f
bx e
bx d
bx c
bx b
bx a
bx `
bx _
bx ^
bx ]
bx \
bx [
bx Z
bx Y
bx X
bx W
bx V
bx U
bx T
bx S
bx R
bx Q
bx P
bx O
bx N
bx M
bx L
bx K
bx J
bx I
bx H
bx G
bx F
bx E
bx D
bx C
bx B
bx A
bx @
bx ?
bx >
bx =
bx <
bx ;
bx :
bx 9
bx 8
bx 7
bx 6
bx 5
bx 4
bx 3
bx 2
bx 1
bx 0
bx /
bx .
bx -
bx ,
0+
0*
0)
bx (
bx '
bx &
bx %
bx $
bx #
bx "
x!
$end
#3000
b0 (
b0 1
b0 %
b0 .
b0 '
b0 0
b0 $
b0 -
b1100 &
b1100 /
b11 #
b11 ,
#5000
b0 :
b0 M
b0 @
b0 L
b0 F
b0 K
b0 P
b0 N
b0 O
b0 9
b0 T
b0 ?
b0 S
b0 _
b0 f
b0 E
b0 R
b0 W
b0 U
b0 V
b0 8
b0 [
b0 >
b0 Z
b0 m
b0 Y
b0 \
b0 ]
b0 7
b0 b
b0 =
b0 a
b0 t
b0 D
b0 `
b0 e
b0 c
b0 d
b0 6
b0 i
b0 <
b0 h
b0 {
b0 C
b0 g
b0 l
b0 j
b0 k
b0 5
b0 p
b0 ;
b0 o
b0 $"
b0 n
b0 q
b0 r
b0 4
b0 w
b0 v
b0 B
b0 u
b0 z
b0 x
b0 y
b0 3
b0 ~
b0 }
b0 A
b0 |
b0 #"
b0 !"
b0 ""
b0 2
b0 '"
b0 &"
b0 %"
b0 ("
b0 )"
b0 X
b0 Q
b1100 J
b0 s
b0 ^
b11 I
b0 H
0!
1)
#10000
1*
1+
0)
#13000
b1000 '
b1000 0
b10 $
b10 -
b1000 &
b1000 /
b10 #
b10 ,
#15000
b1 H
b1000 Q
b1000 J
b10 ^
b10 I
b1100 @
b1100 L
b11 F
b11 K
b11 P
b100100 O
1)
#20000
0)
#23000
b100 (
b100 1
b1 %
b1 .
b100 '
b100 0
b1 $
b1 -
b100 &
b100 /
b1 #
b1 ,
#25000
b1000 @
b1000 L
b10 F
b10 K
b10 P
b100100 N
b10000 O
b1000 ?
b1000 S
b1000 _
b1000 f
b11 E
b11 R
b11 W
b11000 V
b10 D
b10 `
b10 e
b100 X
b100 Q
b100 J
b1 s
b1 ^
b1 I
b10 H
1)
#30000
0)
#33000
b110 (
b110 1
b11 %
b11 .
b110 '
b110 0
b11 $
b11 -
b0 &
b0 /
b0 #
b0 ,
#35000
b11 H
b110 X
b110 Q
b0 J
b11 s
b11 ^
b0 I
b1 B
b1 u
b1 z
b1000 <
b1000 h
b1000 {
b10 C
b10 g
b10 l
b10000 k
b1000 =
b1000 a
b1000 t
b1 D
b1 `
b1 e
b1000 d
b100 >
b100 Z
b100 m
b11 Y
b1100 ]
b100 ?
b100 S
b100 _
b100 f
b10 E
b10 R
b10 W
b11000 U
b1000 V
b100100 :
b100100 M
b100 @
b100 L
b1 F
b1 K
b1 P
b110100 N
b100 O
1)
#40000
0)
#43000
b1000 (
b1000 1
b10 %
b10 .
b0 '
b0 0
b0 $
b0 -
#45000
b110100 :
b110100 M
b0 @
b0 L
b0 F
b0 K
b0 P
b111000 N
b0 O
b11000 9
b11000 T
b110 ?
b110 S
b110 _
b110 f
b1 E
b1 R
b1 W
b100000 U
b110 V
b110 >
b110 Z
b110 m
b10 Y
b1100 \
b100 =
b100 a
b100 t
b11 D
b11 `
b11 e
b1000 c
b1100 d
b100 <
b100 h
b100 {
b1 C
b1 g
b1 l
b10000 j
b100 k
b100 ;
b100 o
b100 $"
b10 n
b1000 r
b1000 v
b11 B
b11 u
b11 z
b11000 y
b1000 }
b1 A
b1 |
b1 #"
b1000 ""
b1000 X
b0 Q
b10 s
b0 ^
b100 H
1)
#50000
0)
#55000
b101 H
b100 &"
b1 %"
b100 )"
b100 }
b11 A
b11 |
b11 #"
b1000 !"
b1100 ""
b100 v
b10 B
b10 u
b10 z
b11000 x
b1000 y
b110 ;
b110 o
b110 $"
b1 n
b1000 q
b110 r
b10000 6
b10000 i
b110 <
b110 h
b110 {
b11 C
b11 g
b11 l
b10100 j
b10010 k
b1000 7
b1000 b
b110 =
b110 a
b110 t
b0 D
b0 `
b0 e
b10100 c
b0 d
b1100 8
b1100 [
b1000 >
b1000 Z
b1000 m
b1 Y
b11000 \
b1000 ]
b100000 9
b100000 T
b0 ?
b0 S
b0 _
b0 f
b0 E
b0 R
b0 W
b100110 U
b0 V
b111000 :
b111000 M
1)
#60000
0)
#65000
b100110 9
b100110 T
b11000 8
b11000 [
b0 Y
b100000 \
b0 ]
b10100 7
b10100 b
b0 =
b0 a
b0 t
b10100 6
b10100 i
b0 <
b0 h
b0 {
b0 C
b0 g
b0 l
b100110 j
b0 k
b1000 5
b1000 p
b1000 ;
b1000 o
b1000 $"
b11 n
b1110 q
b11000 r
b11000 4
b11000 w
b110 v
b100000 x
b1100 y
b1000 3
b1000 ~
b110 }
b10 A
b10 |
b10 #"
b10100 !"
b110 &"
b11 %"
b100 ("
b10010 )"
b0 H
1!
1)
#70000
0)
#75000
b1 H
b100 2
b100 '"
b1000 &"
b10 %"
b10110 ("
b10000 )"
b10100 3
b10100 ~
b0 }
b100000 !"
b0 ""
b100000 4
b100000 w
b0 v
b101100 x
b0 y
b1110 5
b1110 p
b0 n
b100110 q
b0 r
b100110 6
b100110 i
b100000 8
b100000 [
1)
#80000
0)
#85000
b100110 5
b100110 p
b101100 4
b101100 w
b100000 3
b100000 ~
b10110 2
b10110 '"
b100110 ("
b10 H
1)
#90000
0)
#95000
b11 H
b100110 2
b100110 '"
b110110 ("
1)
#100000
0)
#105000
b110110 2
b110110 '"
b1000110 ("
b100 H
1)
#110000
0)
#115000
b101 H
b1000110 2
b1000110 '"
b1010110 ("
1)
#120000
0)
#125000
b1010110 2
b1010110 '"
b1100110 ("
b0 H
1)
#130000
0)
#135000
b1 H
b1100110 2
b1100110 '"
b1110110 ("
1)
#140000
0)
#145000
b1110110 2
b1110110 '"
b10000110 ("
b10 H
1)
#150000
0)
#155000
b11 H
b10000110 2
b10000110 '"
b10010110 ("
1)
#160000
0)
#165000
b10010110 2
b10010110 '"
b10100110 ("
b100 H
1)
#170000
0)
#175000
b101 H
b10100110 2
b10100110 '"
b10110110 ("
1)
#180000
0)
#185000
b10110110 2
b10110110 '"
b11000110 ("
b0 H
1)
#190000
0)
#195000
b1 H
b11000110 2
b11000110 '"
b11010110 ("
1)
#200000
0)
#205000
b11010110 2
b11010110 '"
b11100110 ("
b10 H
1)
#210000
0)
#215000
b11 H
b11100110 2
b11100110 '"
b11110110 ("
1)
#220000
0)
#225000
b11110110 2
b11110110 '"
b100000110 ("
b100 H
1)
#230000
0)
#235000
b101 H
b100000110 2
b100000110 '"
b100010110 ("
1)
#240000
0)
#245000
b100010110 2
b100010110 '"
b100100110 ("
b0 H
1)
#250000
0)
#255000
b1 H
b100100110 2
b100100110 '"
b100110110 ("
1)
#260000
0)
#265000
b100110110 2
b100110110 '"
b101000110 ("
b10 H
1)
#270000
0)
#275000
b11 H
b101000110 2
b101000110 '"
b101010110 ("
1)
#280000
0)
#285000
b101010110 2
b101010110 '"
b101100110 ("
b100 H
1)
#290000
0)
#295000
b101 H
b101100110 2
b101100110 '"
b101110110 ("
1)
#300000
0)
#305000
b101110110 2
b101110110 '"
b110000110 ("
b0 H
1)
#310000
0)
#315000
b1 H
b110000110 2
b110000110 '"
b110010110 ("
1)
#320000
0)
#325000
b110010110 2
b110010110 '"
b110100110 ("
b10 H
1)
#330000
0)
#335000
b11 H
b110100110 2
b110100110 '"
b110110110 ("
1)
#340000
0)
#345000
b110110110 2
b110110110 '"
b111000110 ("
b100 H
1)
#350000
0)
#355000
b101 H
b111000110 2
b111000110 '"
b111010110 ("
1)
#360000
0)
#365000
b111010110 2
b111010110 '"
b111100110 ("
b0 H
1)
#370000
0)
#375000
b1 H
b111100110 2
b111100110 '"
b111110110 ("
1)
#380000
0)
#385000
b111110110 2
b111110110 '"
b1000000110 ("
b10 H
1)
#390000
0)
#395000
b11 H
b1000000110 2
b1000000110 '"
b1000010110 ("
1)
#400000
0)
#405000
b1000010110 2
b1000010110 '"
b1000100110 ("
b100 H
1)
#410000
0)
#415000
b101 H
b1000100110 2
b1000100110 '"
b1000110110 ("
1)
#420000
0)
#425000
b1000110110 2
b1000110110 '"
b1001000110 ("
b0 H
1)
#430000
0)
#435000
b1 H
b1001000110 2
b1001000110 '"
b1001010110 ("
1)
#440000
0)
#445000
b1001010110 2
b1001010110 '"
b1001100110 ("
b10 H
1)
#450000
0)
#455000
b11 H
b1001100110 2
b1001100110 '"
b1001110110 ("
1)
#460000
0)
#465000
b1001110110 2
b1001110110 '"
b1010000110 ("
b100 H
1)
#470000
0)
#475000
b101 H
b1010000110 2
b1010000110 '"
b1010010110 ("
1)
#480000
0)
#485000
b1010010110 2
b1010010110 '"
b1010100110 ("
b0 H
1)
#490000
0)
#495000
b1 H
b1010100110 2
b1010100110 '"
b1010110110 ("
1)
